<svg class="ign-icon icon-logo" xmlns="http://www.w3.org/2000/svg" viewBox="0 0 1482.1 464.2"><metadata><?xpacket begin="﻿" id="W5M0MpCehiHzreSzNTczkc9d"?>
<x:xmpmeta xmlns:x="adobe:ns:meta/" x:xmptk="Adobe XMP Core 5.6-c137 79.159768, 2016/08/11-13:24:42        ">
   <rdf:RDF xmlns:rdf="http://www.w3.org/1999/02/22-rdf-syntax-ns#">
      <rdf:Description rdf:about=""/>
   </rdf:RDF>
</x:xmpmeta>
                                                                                                    
                                                                                                    
                                                                                                    
                                                                                                    
                                                                                                    
                                                                                                    
                                                                                                    
                                                                                                    
                                                                                                    
                                                                                                    
                                                                                                    
                                                                                                    
                                                                                                    
                                                                                                    
                                                                                                    
                                                                                                    
                                                                                                    
                                                                                                    
                                                                                                    
                                                                                                    
                           
<?xpacket end="w"?></metadata>
<g fill="#fff"><path d="M791 271.2v-79.4l213 .1c21.6 0 39.3 17.5 39.3 39.1v94.4c0 48.6-38.8 88.8-88.2 88.8l-136.4.1c-101.1 0-182.8-81.6-182.8-182.4 0-100.7 82.3-182.4 183-182.4H1030v83.8H818.8c-54.4 0-99.1 44.1-99.1 98.6 0 54.4 44 98.5 99 98.5h140.9v-59.2H791zM608.1 49.1h-82.9v326.5c0 21.5 17.5 38.9 39 38.9h43.9V76c.1-.1 0-26.9 0-26.9zM1433.7 49.3h-44.5v281.4c-.1.8-.2 1.6-.7 2.3-1 1.7-2.8 2.8-4.9 2.8-1.8 0-3.4-.8-5.1-3.1L1239.3 88.4c-15.5-26-43.9-43-75.8-43h-1.5c-48.6 0-88.1 39.4-88.1 88.1v242.1c0 21.5 17.5 38.9 38.9 38.9h44.1v-281c0-.9.4-1.8.8-2.6 1-1.7 2.8-2.9 4.9-2.9 1.7 0 3.8.6 4.9 2.8l140.2 245.9c15.5 26 43.3 41.8 75.1 41.8h1.5c48.6 0 88.1-39.4 88.1-88.1V88.2c.2-21.5-17.2-38.9-38.7-38.9zM108.4 152c10.9-16.5 25.1-30.7 41.6-41.6 2.4-21.7 5.6-41.6 9.6-59.1C109.3 71 69 111.2 49.3 161.7c17.6-4 37.4-7.3 59.1-9.7zM310.1 109.9c0 .2 0 .3.1.4 16.6 10.9 30.8 25.1 41.7 41.7 21.7 2.4 41.6 5.6 59.1 9.6-19.8-50.6-60.1-90.9-110.8-110.5 4 17.5 7.3 37.2 9.9 58.8zM150.1 353.8c-16.5-10.9-30.7-25.1-41.7-41.7-.2 0-.3 0-.5-.1-21.9-2.6-41.5-5.9-58.7-9.9 19.7 50.6 59.9 90.9 110.5 110.7-4-17.4-7.3-37.3-9.6-59zM352.3 312.1c-.2 0-.3 0-.5.1-10.9 16.6-25.1 30.8-41.7 41.7 0 .2 0 .3-.1.5-2.5 21.6-5.9 41.3-9.9 58.7 50.7-19.7 91.2-60.1 110.9-110.8-17.2 3.9-36.8 7.2-58.7 9.8zM450.8 196c-34.3-15.9-85.7-21.9-103.2-23.7-3.6-.6-6.9-.9-10.1-.9l-54.3 60.8 54.3 60.7c3.7 0 7.6-.4 11.7-1.1 17.1-2 67.6-8.2 101.5-23.9V196h.1zm-328.1-24.7c-3.1 0-6.4.3-10.1.9-17.5 1.9-68.9 7.9-103.2 23.8v71.7c33.9 15.7 84.5 22 101.6 23.9 4.1.8 8 1.1 11.7 1.1L177 232l-54.3-60.7zm46.7 168.2c0 3.1.3 6.4.9 10.1 1.9 17.5 7.9 68.9 23.8 103.1h71.7c15.7-33.9 22-84.5 24-101.5.8-4.1 1.2-8 1.2-11.7l-60.7-54.3-60.9 54.3zM194 11.4h71.7c15.7 33.9 22 84.5 24 101.5.8 4.1 1.2 7.9 1.2 11.7L230.1 179l-60.7-54.4c0-3.1.3-6.4.9-10.1 1.9-17.4 7.9-68.8 23.7-103.1z"></path></g></svg>